^D:\DESKTOP\WORK_FOLDER\COURSE_WORK_OOP_C++\COURSE\COURSE_WORK\COURSE_WORK\BIRD.CPP
/c /ZI /nologo /W3 /WX- /sdl /Od /Oy- /D WIN32 /D _DEBUG /D _CONSOLE /D _LIB /D _UNICODE /D UNICODE /Gm /EHsc /RTC1 /MDd /GS /fp:precise /Zc:wchar_t /Zc:forScope /Fo"DEBUG\\" /Fd"DEBUG\VC120.PDB" /Gd /TP /analyze- D:\DESKTOP\WORK_FOLDER\COURSE_WORK_OOP_C++\COURSE\COURSE_WORK\COURSE_WORK\BIRD.CPP
^D:\DESKTOP\WORK_FOLDER\COURSE_WORK_OOP_C++\COURSE\COURSE_WORK\COURSE_WORK\DISPLAY.CPP
/c /ZI /nologo /W3 /WX- /sdl /Od /Oy- /D WIN32 /D _DEBUG /D _CONSOLE /D _LIB /D _UNICODE /D UNICODE /Gm /EHsc /RTC1 /MDd /GS /fp:precise /Zc:wchar_t /Zc:forScope /Fo"DEBUG\\" /Fd"DEBUG\VC120.PDB" /Gd /TP /analyze- D:\DESKTOP\WORK_FOLDER\COURSE_WORK_OOP_C++\COURSE\COURSE_WORK\COURSE_WORK\DISPLAY.CPP
^D:\DESKTOP\WORK_FOLDER\COURSE_WORK_OOP_C++\COURSE\COURSE_WORK\COURSE_WORK\INFORMER.CPP
/c /ZI /nologo /W3 /WX- /sdl /Od /Oy- /D WIN32 /D _DEBUG /D _CONSOLE /D _LIB /D _UNICODE /D UNICODE /Gm /EHsc /RTC1 /MDd /GS /fp:precise /Zc:wchar_t /Zc:forScope /Fo"DEBUG\\" /Fd"DEBUG\VC120.PDB" /Gd /TP /analyze- D:\DESKTOP\WORK_FOLDER\COURSE_WORK_OOP_C++\COURSE\COURSE_WORK\COURSE_WORK\INFORMER.CPP
^D:\DESKTOP\WORK_FOLDER\COURSE_WORK_OOP_C++\COURSE\COURSE_WORK\COURSE_WORK\MAIN.CPP
/c /ZI /nologo /W3 /WX- /sdl /Od /Oy- /D WIN32 /D _DEBUG /D _CONSOLE /D _LIB /D _UNICODE /D UNICODE /Gm /EHsc /RTC1 /MDd /GS /fp:precise /Zc:wchar_t /Zc:forScope /Fo"DEBUG\\" /Fd"DEBUG\VC120.PDB" /Gd /TP /analyze- D:\DESKTOP\WORK_FOLDER\COURSE_WORK_OOP_C++\COURSE\COURSE_WORK\COURSE_WORK\MAIN.CPP
^D:\DESKTOP\WORK_FOLDER\COURSE_WORK_OOP_C++\COURSE\COURSE_WORK\COURSE_WORK\MENU.CPP
/c /ZI /nologo /W3 /WX- /sdl /Od /Oy- /D WIN32 /D _DEBUG /D _CONSOLE /D _LIB /D _UNICODE /D UNICODE /Gm /EHsc /RTC1 /MDd /GS /fp:precise /Zc:wchar_t /Zc:forScope /Fo"DEBUG\\" /Fd"DEBUG\VC120.PDB" /Gd /TP /analyze- D:\DESKTOP\WORK_FOLDER\COURSE_WORK_OOP_C++\COURSE\COURSE_WORK\COURSE_WORK\MENU.CPP
^D:\DESKTOP\WORK_FOLDER\COURSE_WORK_OOP_C++\COURSE\COURSE_WORK\COURSE_WORK\PLAYER.CPP
/c /ZI /nologo /W3 /WX- /sdl /Od /Oy- /D WIN32 /D _DEBUG /D _CONSOLE /D _LIB /D _UNICODE /D UNICODE /Gm /EHsc /RTC1 /MDd /GS /fp:precise /Zc:wchar_t /Zc:forScope /Fo"DEBUG\\" /Fd"DEBUG\VC120.PDB" /Gd /TP /analyze- D:\DESKTOP\WORK_FOLDER\COURSE_WORK_OOP_C++\COURSE\COURSE_WORK\COURSE_WORK\PLAYER.CPP
^D:\DESKTOP\WORK_FOLDER\COURSE_WORK_OOP_C++\COURSE\COURSE_WORK\COURSE_WORK\TUBE.CPP
/c /ZI /nologo /W3 /WX- /sdl /Od /Oy- /D WIN32 /D _DEBUG /D _CONSOLE /D _LIB /D _UNICODE /D UNICODE /Gm /EHsc /RTC1 /MDd /GS /fp:precise /Zc:wchar_t /Zc:forScope /Fo"DEBUG\\" /Fd"DEBUG\VC120.PDB" /Gd /TP /analyze- D:\DESKTOP\WORK_FOLDER\COURSE_WORK_OOP_C++\COURSE\COURSE_WORK\COURSE_WORK\TUBE.CPP
^D:\DESKTOP\WORK_FOLDER\COURSE_WORK_OOP_C++\COURSE\COURSE_WORK\COURSE_WORK\XSTRING.CPP
/c /ZI /nologo /W3 /WX- /sdl /Od /Oy- /D WIN32 /D _DEBUG /D _CONSOLE /D _LIB /D _UNICODE /D UNICODE /Gm /EHsc /RTC1 /MDd /GS /fp:precise /Zc:wchar_t /Zc:forScope /Fo"DEBUG\\" /Fd"DEBUG\VC120.PDB" /Gd /TP /analyze- D:\DESKTOP\WORK_FOLDER\COURSE_WORK_OOP_C++\COURSE\COURSE_WORK\COURSE_WORK\XSTRING.CPP
